codeA3/codeA3/generated/SystemTop.vcd
$date
2024-11-28T13:52+0000
$end
$version
0.2
$end
$comment

$end
$timescale 1ns  $end
$scope module SystemTop $end
 $var wire 32 # io_testerDataMemDataRead $end
 $var wire 1 . io_testerDataMemWriteEnable $end
 $var wire 32 G io_testerDataMemDataWrite $end
 $var wire 1 H io_start $end
 $var wire 1 O io_testerDataMemEnable $end
 $var wire 1 ^ clock $end
 $var wire 1 f dataMemory $end
 $var wire 16 g io_testerDataMemAddress $end
 $var wire 1 j accelerator $end
 $var wire 1 n io_done $end
 $var wire 1 "$ reset $end
  $scope module dataMemory $end
   $var wire 32 ! _GEN_11 $end
   $var wire 32 & io_testerDataWrite $end
   $var wire 1 , clock $end
   $var wire 1 / io_testerEnable $end
   $var wire 32 9 io_dataRead $end
   $var wire 32 : io_dataWrite $end
   $var wire 1 L io_testerWriteEnable $end
   $var wire 32 M _GEN_5 $end
   $var wire 16 W io_address $end
   $var wire 1 [ io_writeEnable $end
   $var wire 16 o io_testerAddress $end
   $var wire 32 p memory $end
   $var wire 32 | io_testerDataRead $end
    $scope module memory $end
      $scope module _T_1 $end
       $var wire 16 % addr $end
       $var wire 16 + pipeline_addr_0 $end
       $var wire 1 0 en $end
       $var wire 32 E data $end
       $var wire 32 T pipeline_data_0 $end
       $var wire 1 k pipeline_valid_0 $end
       $var wire 1 u valid $end
       $var wire 1 } mask $end
       $var wire 1 "& clk $end
      $upscope $end
      $scope module _T $end
       $var wire 1 ) clk $end
       $var wire 16 V addr $end
       $var wire 1 \ en $end
       $var wire 32 "! data $end
      $upscope $end
      $scope module _T_3 $end
       $var wire 1 1 pipeline_valid_0 $end
       $var wire 1 2 en $end
       $var wire 1 3 mask $end
       $var wire 16 5 pipeline_addr_0 $end
       $var wire 16 J addr $end
       $var wire 1 U clk $end
       $var wire 32 h pipeline_data_0 $end
       $var wire 32 r data $end
       $var wire 1 ", valid $end
      $upscope $end
      $scope module _T_2 $end
       $var wire 1 6 clk $end
       $var wire 16 ; addr $end
       $var wire 32 R data $end
       $var wire 1 b en $end
      $upscope $end
    $upscope $end
  $upscope $end
  $scope module accelerator $end
   $var wire 3 " _GEN_2 $end
   $var wire 3 $ _GEN_13 $end
   $var wire 32 ' _GEN_34 $end
   $var wire 5 ( _GEN_28 $end
   $var wire 5 * _GEN_5 $end
   $var wire 32 - _GEN_16 $end
   $var wire 3 4 _GEN_8 $end
   $var wire 10 7 _GEN_48 $end
   $var wire 32 8 _GEN_33 $end
   $var wire 10 < _GEN_15 $end
   $var wire 10 = _GEN_42 $end
   $var wire 5 > _GEN_36 $end
   $var wire 1 ? _GEN_21 $end
   $var wire 1 @ reset $end
   $var wire 10 A _GEN_30 $end
   $var wire 10 B _GEN_24 $end
   $var wire 3 C _GEN_7 $end
   $var wire 3 D _GEN_18 $end
   $var wire 5 F _GEN_39 $end
   $var wire 5 I _GEN_27 $end
   $var wire 5 K _GEN_12 $end
   $var wire 5 N _GEN_1 $end
   $var wire 8 P _GEN_4 $end
   $var wire 1 Q _T $end
   $var wire 1 S _GEN_38 $end
   $var wire 32 X inputPixel $end
   $var wire 3 Y state $end
   $var wire 5 Z y $end
   $var wire 3 ] _GEN_32 $end
   $var wire 1 _ io_done $end
   $var wire 5 ` _GEN_11 $end
   $var wire 1 a _GEN_26 $end
   $var wire 1 c _GEN_35 $end
   $var wire 1 d io_writeEnable $end
   $var wire 3 e _GEN_41 $end
   $var wire 1 i _GEN_29 $end
   $var wire 5 l _GEN_20 $end
   $var wire 1 m _GEN_14 $end
   $var wire 32 q io_dataWrite $end
   $var wire 3 s _GEN_23 $end
   $var wire 5 t _GEN_6 $end
   $var wire 1 v clock $end
   $var wire 16 w io_address $end
   $var wire 5 x _GEN_0 $end
   $var wire 32 y outputPixel $end
   $var wire 1 z io_start $end
   $var wire 32 { io_dataRead $end
   $var wire 5 ~ _GEN_40 $end
   $var wire 8 "" _GEN_3 $end
   $var wire 5 "# x $end
   $var wire 5 "% _GEN_37 $end
   $var wire 32 "' _GEN_22 $end
   $var wire 32 "( _GEN_31 $end
   $var wire 3 ") _GEN_10 $end
   $var wire 32 "* _GEN_25 $end
   $var wire 5 "+ _GEN_19 $end
  $upscope $end
$upscope $end
$enddefinitions $end
$dumpvars
b00000000000000000000000000000000 "'
b0000000000000000 +
b00000000000000000000000000000000 '
b00000000000000000000000000000000 p
b00000000000000000000000000000000 "!
13
b00000000000000000000000000000000 !
b00000000000000000000000000000000 r
b00000 ~
0i
b00000000000000000000000000000000 8
b00000000000000000000000000000000 #
b000 C
0k
b00000 x
b00000000000000000000000000000000 :
b00000 F
0m
b0000000000 A
b000 "
b00000000000000000000000000000000 h
b0000000000000000 W
b000 s
b00000 t
b0000000000000000 %
b000 $
b00000000 ""
0a
b00000000000000000000000000000000 M
0L
b0000000000 =
b00000000000000000000000000000000 E
b00000000000000000000000000000000 "(
0/
b00000000000000000000000000000000 y
0c
b00000000000000000000000000000000 "*
b00000000000000000000000000000000 G
01
b0000000000 7
0[
b00000 >
b00000000 P
0)
b00000000000000000000000000000000 {
0z
0H
0@
0_
b00000 "+
b00000000000000000000000000000000 X
b00000 l
b00000000000000000000000000000000 &
0v
0n
b00000 "%
b000 e
b000 ]
b0000000000 B
b00000 I
b00000000000000000000000000000000 q
0S
b00000000000000000000000000000000 T
b00000 `
b00000 K
06
1}
b0000000000000000 w
b0000000000000000 o
0j
0U
b00000000000000000000000000000000 9
0",
b000 Y
b000 D
b00000 (
0d
b00000 "#
0O
02
b00000 *
b00000000000000000000000000000000 |
0f
0Q
b0000000000000000 V
b00000000000000000000000000000000 R
b0000000000000000 ;
b0000000000 <
0.
b0000000000000000 g
0b
b0000000000000000 J
b00000 Z
00
0"$
b0000000000000000 5
b000 4
0\
0"&
0?
0^
b000 ")
0,
b00000000000000000000000000000000 -
b00000 N
0u
$end
#0
1Q
1"$
1@
b001 C
b11111111 ""
b00001 *
1b
#1
1U
1v
16
1"&
1^
1,
1)
#6
0U
0v
06
0"&
0^
0,
0)
#11
1U
1v
16
1"&
1^
1,
1)
#16
0U
0v
06
0"&
0^
0,
0)
#21
1U
1v
16
1"&
1^
1,
1)
#26
0U
0v
06
0"&
0^
0,
0)
#31
1U
1v
16
1"&
1^
1,
1)
#36
0U
0v
06
0"&
0^
0,
0)
#41
1U
1v
16
1"&
1^
1,
1)
#46
1u
0"$
1.
0v
06
0"&
1L
1/
0b
0)
1\
10
0U
0@
1O
0^
0,
#51
1U
1v
1k
16
1"&
1^
1,
1)
#56
b0000000000000001 %
b0000000000000001 g
0v
0U
b0000000000000001 V
b0000000000000001 o
06
0"&
0^
0,
0)
#61
1U
1v
16
1"&
b0000000000000001 +
1^
1,
1)
#66
b0000000000000010 %
b0000000000000010 g
0v
0U
b0000000000000010 V
b0000000000000010 o
06
0"&
0^
0,
0)
#71
1U
1v
16
1"&
b0000000000000010 +
1^
1,
1)
#76
b0000000000000011 %
b0000000000000011 g
0v
0U
b0000000000000011 V
b0000000000000011 o
06
0"&
0^
0,
0)
#81
1U
1v
16
1"&
b0000000000000011 +
1^
1,
1)
#86
b0000000000000100 %
b0000000000000100 g
0v
0U
b0000000000000100 V
b0000000000000100 o
06
0"&
0^
0,
0)
#91
1U
1v
16
1"&
b0000000000000100 +
1^
1,
1)
#96
b0000000000000101 %
b0000000000000101 g
0v
0U
b0000000000000101 V
b0000000000000101 o
06
0"&
0^
0,
0)
#101
1U
1v
16
1"&
b0000000000000101 +
1^
1,
1)
#106
b0000000000000110 %
b0000000000000110 g
0v
0U
b0000000000000110 V
b0000000000000110 o
06
0"&
0^
0,
0)
#111
1U
1v
16
1"&
b0000000000000110 +
1^
1,
1)
#116
b0000000000000111 %
b0000000000000111 g
0v
0U
b0000000000000111 V
b0000000000000111 o
06
0"&
0^
0,
0)
#121
1U
1v
16
1"&
b0000000000000111 +
1^
1,
1)
#126
b0000000000001000 %
b0000000000001000 g
0v
0U
b0000000000001000 V
b0000000000001000 o
06
0"&
0^
0,
0)
#131
1U
1v
16
1"&
b0000000000001000 +
1^
1,
1)
#136
b0000000000001001 %
b0000000000001001 g
0v
0U
b0000000000001001 V
b0000000000001001 o
06
0"&
0^
0,
0)
#141
1U
1v
16
1"&
b0000000000001001 +
1^
1,
1)
#146
b0000000000001010 %
b0000000000001010 g
0v
0U
b0000000000001010 V
b0000000000001010 o
06
0"&
0^
0,
0)
#151
1U
1v
16
1"&
b0000000000001010 +
1^
1,
1)
#156
b0000000000001011 %
b0000000000001011 g
0v
0U
b0000000000001011 V
b0000000000001011 o
06
0"&
0^
0,
0)
#161
1U
1v
16
1"&
b0000000000001011 +
1^
1,
1)
#166
b0000000000001100 %
b0000000000001100 g
0v
0U
b0000000000001100 V
b0000000000001100 o
06
0"&
0^
0,
0)
#171
1U
1v
16
1"&
b0000000000001100 +
1^
1,
1)
#176
b0000000000001101 %
b0000000000001101 g
0v
0U
b0000000000001101 V
b0000000000001101 o
06
0"&
0^
0,
0)
#181
1U
1v
16
1"&
b0000000000001101 +
1^
1,
1)
#186
b0000000000001110 %
b0000000000001110 g
0v
0U
b0000000000001110 V
b0000000000001110 o
06
0"&
0^
0,
0)
#191
1U
1v
16
1"&
b0000000000001110 +
1^
1,
1)
#196
b0000000000001111 %
b0000000000001111 g
0v
0U
b0000000000001111 V
b0000000000001111 o
06
0"&
0^
0,
0)
#201
1U
1v
16
1"&
b0000000000001111 +
1^
1,
1)
#206
b0000000000010000 %
b0000000000010000 g
0v
0U
b0000000000010000 V
b0000000000010000 o
06
0"&
0^
0,
0)
#211
1U
1v
16
1"&
b0000000000010000 +
1^
1,
1)
#216
b0000000000010001 %
b0000000000010001 g
0v
0U
b0000000000010001 V
b0000000000010001 o
06
0"&
0^
0,
0)
#221
1U
1v
16
1"&
b0000000000010001 +
1^
1,
1)
#226
b0000000000010010 %
b0000000000010010 g
0v
0U
b0000000000010010 V
b0000000000010010 o
06
0"&
0^
0,
0)
#231
1U
1v
16
1"&
b0000000000010010 +
1^
1,
1)
#236
b0000000000010011 %
b0000000000010011 g
0v
0U
b0000000000010011 V
b0000000000010011 o
06
0"&
0^
0,
0)
#241
1U
1v
16
1"&
b0000000000010011 +
1^
1,
1)
#246
b0000000000010100 %
b0000000000010100 g
0v
0U
b0000000000010100 V
b0000000000010100 o
06
0"&
0^
0,
0)
#251
1U
1v
16
1"&
b0000000000010100 +
1^
1,
1)
#256
b0000000000010101 %
b0000000000010101 g
0v
0U
b0000000000010101 V
b0000000000010101 o
06
0"&
0^
0,
0)
#261
1U
1v
16
1"&
b0000000000010101 +
1^
1,
1)
#266
b0000000000010110 %
b0000000000010110 g
0v
0U
b0000000000010110 V
b0000000000010110 o
06
0"&
0^
0,
0)
#271
1U
1v
16
1"&
b0000000000010110 +
1^
1,
1)
#276
b0000000000010111 %
b0000000000010111 g
0v
0U
b0000000000010111 V
b0000000000010111 o
06
0"&
0^
0,
0)
#281
1U
1v
16
1"&
b0000000000010111 +
1^
1,
1)
#286
b0000000000011000 %
b0000000000011000 g
0v
0U
b0000000000011000 V
b0000000000011000 o
06
0"&
0^
0,
0)
#291
1U
1v
16
1"&
b0000000000011000 +
1^
1,
1)
#296
b0000000000011001 %
b0000000000011001 g
0v
0U
b0000000000011001 V
b0000000000011001 o
06
0"&
0^
0,
0)
#301
1U
1v
16
1"&
b0000000000011001 +
1^
1,
1)
#306
b0000000000011010 %
b0000000000011010 g
0v
0U
b0000000000011010 V
b0000000000011010 o
06
0"&
0^
0,
0)
#311
1U
1v
16
1"&
b0000000000011010 +
1^
1,
1)
#316
b0000000000011011 %
b0000000000011011 g
0v
0U
b0000000000011011 V
b0000000000011011 o
06
0"&
0^
0,
0)
#321
1U
1v
16
1"&
b0000000000011011 +
1^
1,
1)
#326
b0000000000011100 %
b0000000000011100 g
0v
0U
b0000000000011100 V
b0000000000011100 o
06
0"&
0^
0,
0)
#331
1U
1v
16
1"&
b0000000000011100 +
1^
1,
1)
#336
b0000000000011101 %
b0000000000011101 g
0v
0U
b0000000000011101 V
b0000000000011101 o
06
0"&
0^
0,
0)
#341
1U
1v
16
1"&
b0000000000011101 +
1^
1,
1)
#346
b0000000000011110 %
b0000000000011110 g
0v
0U
b0000000000011110 V
b0000000000011110 o
06
0"&
0^
0,
0)
#351
1U
1v
16
1"&
b0000000000011110 +
1^
1,
1)
#356
b0000000000011111 %
b0000000000011111 g
0v
0U
b0000000000011111 V
b0000000000011111 o
06
0"&
0^
0,
0)
#361
1U
1v
16
1"&
b0000000000011111 +
1^
1,
1)
#366
b0000000000100000 %
b0000000000100000 g
0v
0U
b0000000000100000 V
b0000000000100000 o
06
0"&
0^
0,
0)
#371
1U
1v
16
1"&
b0000000000100000 +
1^
1,
1)
#376
b0000000000100001 %
b0000000000100001 g
0v
0U
b0000000000100001 V
b0000000000100001 o
06
0"&
0^
0,
0)
#381
1U
1v
16
1"&
b0000000000100001 +
1^
1,
1)
#386
b0000000000100010 %
b0000000000100010 g
0v
0U
b0000000000100010 V
b0000000000100010 o
06
0"&
0^
0,
0)
#391
1U
1v
16
1"&
b0000000000100010 +
1^
1,
1)
#396
b0000000000100011 %
b0000000000100011 g
0v
0U
b0000000000100011 V
b0000000000100011 o
06
0"&
0^
0,
0)
#401
1U
1v
16
1"&
b0000000000100011 +
1^
1,
1)
#406
b0000000000100100 %
b0000000000100100 g
0v
0U
b0000000000100100 V
b0000000000100100 o
06
0"&
0^
0,
0)
#411
1U
1v
16
1"&
b0000000000100100 +
1^
1,
1)
#416
b0000000000100101 %
b0000000000100101 g
0v
0U
b0000000000100101 V
b0000000000100101 o
06
0"&
0^
0,
0)
#421
1U
1v
16
1"&
b0000000000100101 +
1^
1,
1)
#426
b0000000000100110 %
b0000000000100110 g
0v
0U
b0000000000100110 V
b0000000000100110 o
06
0"&
0^
0,
0)
#431
1U
1v
16
1"&
b0000000000100110 +
1^
1,
1)
#436
b0000000000100111 %
b0000000000100111 g
0v
0U
b0000000000100111 V
b0000000000100111 o
06
0"&
0^
0,
0)
#441
1U
1v
16
1"&
b0000000000100111 +
1^
1,
1)
#446
b0000000000101000 %
b0000000000101000 g
0v
0U
b0000000000101000 V
b0000000000101000 o
06
0"&
0^
0,
0)
#451
1U
1v
16
1"&
b0000000000101000 +
1^
1,
1)
#456
b0000000000101001 %
b0000000000101001 g
0v
0U
b0000000000101001 V
b0000000000101001 o
06
0"&
0^
0,
0)
#461
1U
1v
16
1"&
b0000000000101001 +
1^
1,
1)
#466
b0000000000101010 %
b0000000000101010 g
0v
0U
b0000000000101010 V
b0000000000101010 o
06
0"&
0^
0,
0)
#471
1U
1v
16
1"&
b0000000000101010 +
1^
1,
1)
#476
b0000000000101011 %
b0000000000101011 g
0v
0U
b0000000000101011 V
b0000000000101011 o
06
0"&
0^
0,
0)
#481
1U
1v
16
1"&
b0000000000101011 +
1^
1,
1)
#486
b0000000000101100 %
b0000000000101100 g
0v
0U
b0000000000101100 V
b0000000000101100 o
06
0"&
0^
0,
0)
#491
1U
1v
16
1"&
b0000000000101100 +
1^
1,
1)
#496
b0000000000101101 %
b0000000000101101 g
0v
0U
b0000000000101101 V
b0000000000101101 o
06
0"&
0^
0,
0)
#501
1U
1v
16
1"&
b0000000000101101 +
1^
1,
1)
#506
b0000000000101110 %
b0000000000101110 g
0v
0U
b0000000000101110 V
b0000000000101110 o
06
0"&
0^
0,
0)
#511
1U
1v
16
1"&
b0000000000101110 +
1^
1,
1)
#516
b0000000000101111 %
b0000000000101111 g
0v
0U
b0000000000101111 V
b0000000000101111 o
06
0"&
0^
0,
0)
#521
1U
1v
16
1"&
b0000000000101111 +
1^
1,
1)
#526
b0000000000110000 %
b0000000000110000 g
0v
0U
b0000000000110000 V
b0000000000110000 o
06
0"&
0^
0,
0)
#531
1U
1v
16
1"&
b0000000000110000 +
1^
1,
1)
#536
b0000000000110001 %
b0000000000110001 g
0v
0U
b0000000000110001 V
b0000000000110001 o
06
0"&
0^
0,
0)
#541
1U
1v
16
1"&
b0000000000110001 +
1^
1,
1)
#546
b0000000000110010 %
b0000000000110010 g
0v
0U
b0000000000110010 V
b0000000000110010 o
06
0"&
0^
0,
0)
#551
1U
1v
16
1"&
b0000000000110010 +
1^
1,
1)
#556
b0000000000110011 %
b0000000000110011 g
0v
0U
b0000000000110011 V
b0000000000110011 o
06
0"&
0^
0,
0)
#561
1U
1v
16
1"&
b0000000000110011 +
1^
1,
1)
#566
b0000000000110100 %
b0000000000110100 g
0v
0U
b0000000000110100 V
b0000000000110100 o
06
0"&
0^
0,
0)
#571
1U
1v
16
1"&
b0000000000110100 +
1^
1,
1)
#576
b0000000000110101 %
b0000000000110101 g
0v
0U
b0000000000110101 V
b0000000000110101 o
06
0"&
0^
0,
0)
#581
1U
1v
16
1"&
b0000000000110101 +
1^
1,
1)
#586
b0000000000110110 %
b0000000000110110 g
0v
0U
b0000000000110110 V
b0000000000110110 o
06
0"&
0^
0,
0)
#591
1U
1v
16
1"&
b0000000000110110 +
1^
1,
1)
#596
b0000000000110111 %
b0000000000110111 g
0v
0U
b0000000000110111 V
b0000000000110111 o
06
0"&
0^
0,
0)
#601
1U
1v
16
1"&
b0000000000110111 +
1^
1,
1)
#606
b0000000000111000 %
b0000000000111000 g
0v
0U
b0000000000111000 V
b0000000000111000 o
06
0"&
0^
0,
0)
#611
1U
1v
16
1"&
b0000000000111000 +
1^
1,
1)
#616
b0000000000111001 %
b0000000000111001 g
0v
0U
b0000000000111001 V
b0000000000111001 o
06
0"&
0^
0,
0)
#621
1U
1v
16
1"&
b0000000000111001 +
1^
1,
1)
#626
b0000000000111010 %
b0000000000111010 g
0v
0U
b0000000000111010 V
b0000000000111010 o
06
0"&
0^
0,
0)
#631
1U
1v
16
1"&
b0000000000111010 +
1^
1,
1)
#636
b0000000000111011 %
b0000000000111011 g
0v
0U
b0000000000111011 V
b0000000000111011 o
06
0"&
0^
0,
0)
#641
1U
1v
16
1"&
b0000000000111011 +
1^
1,
1)
#646
b0000000000111100 %
b0000000000111100 g
0v
0U
b0000000000111100 V
b0000000000111100 o
06
0"&
0^
0,
0)
#651
1U
1v
16
1"&
b0000000000111100 +
1^
1,
1)
#656
b0000000000111101 %
b0000000000111101 g
0v
0U
b0000000000111101 V
b0000000000111101 o
06
0"&
0^
0,
0)
#661
1U
1v
16
1"&
b0000000000111101 +
1^
1,
1)
#666
b0000000000111110 %
b0000000000111110 g
0v
0U
b0000000000111110 V
b0000000000111110 o
06
0"&
0^
0,
0)
#671
1U
1v
16
1"&
b0000000000111110 +
1^
1,
1)
#676
b0000000000111111 %
b0000000000111111 g
0v
0U
b0000000000111111 V
b0000000000111111 o
06
0"&
0^
0,
0)
#681
1U
1v
16
1"&
b0000000000111111 +
1^
1,
1)
#686
b0000000001000000 %
b0000000001000000 g
0v
0U
b0000000001000000 V
b0000000001000000 o
06
0"&
0^
0,
0)
#691
1U
1v
16
1"&
b0000000001000000 +
1^
1,
1)
#696
b0000000001000001 %
b0000000001000001 g
0v
0U
b0000000001000001 V
b0000000001000001 o
06
0"&
0^
0,
0)
#701
1U
1v
16
1"&
b0000000001000001 +
1^
1,
1)
#706
b0000000001000010 %
b0000000001000010 g
0v
0U
b0000000001000010 V
b0000000001000010 o
06
0"&
0^
0,
0)
#711
1U
1v
16
1"&
b0000000001000010 +
1^
1,
1)
#716
b0000000001000011 %
b0000000001000011 g
0v
0U
b0000000001000011 V
b0000000001000011 o
06
0"&
0^
0,
0)
#721
1U
1v
16
1"&
b0000000001000011 +
1^
1,
1)
#726
b0000000001000100 %
b0000000001000100 g
0v
0U
b0000000001000100 V
b0000000001000100 o
06
0"&
0^
0,
0)
#731
1U
1v
16
1"&
b0000000001000100 +
1^
1,
1)
#736
b0000000001000101 %
b0000000001000101 g
0v
0U
b0000000001000101 V
b0000000001000101 o
06
0"&
0^
0,
0)
#741
1U
1v
16
1"&
b0000000001000101 +
1^
1,
1)
#746
b0000000001000110 %
b0000000001000110 g
0v
0U
b0000000001000110 V
b0000000001000110 o
06
0"&
0^
0,
0)
#751
1U
1v
16
1"&
b0000000001000110 +
1^
1,
1)
#756
b0000000001000111 %
b0000000001000111 g
0v
0U
b0000000001000111 V
b0000000001000111 o
06
0"&
0^
0,
0)
#761
1U
1v
16
1"&
b0000000001000111 +
1^
1,
1)
#766
b0000000001001000 %
b0000000001001000 g
0v
0U
b0000000001001000 V
b0000000001001000 o
06
0"&
0^
0,
0)
#771
1U
1v
16
1"&
b0000000001001000 +
1^
1,
1)
#776
b0000000001001001 %
b0000000001001001 g
0v
0U
b0000000001001001 V
b0000000001001001 o
06
0"&
0^
0,
0)
#781
1U
1v
16
1"&
b0000000001001001 +
1^
1,
1)
#786
b0000000001001010 %
b0000000001001010 g
0v
0U
b0000000001001010 V
b0000000001001010 o
06
0"&
0^
0,
0)
#791
1U
1v
16
1"&
b0000000001001010 +
1^
1,
1)
#796
b0000000001001011 %
b0000000001001011 g
0v
0U
b0000000001001011 V
b0000000001001011 o
06
0"&
0^
0,
0)
#801
1U
1v
16
1"&
b0000000001001011 +
1^
1,
1)
#806
b0000000001001100 %
b0000000001001100 g
0v
0U
b0000000001001100 V
b0000000001001100 o
06
0"&
0^
0,
0)
#811
1U
1v
16
1"&
b0000000001001100 +
1^
1,
1)
#816
b0000000001001101 %
b0000000001001101 g
0v
0U
b0000000001001101 V
b0000000001001101 o
06
0"&
0^
0,
0)
#821
1U
1v
16
1"&
b0000000001001101 +
1^
1,
1)
#826
b0000000001001110 %
b0000000001001110 g
0v
0U
b0000000001001110 V
b0000000001001110 o
06
0"&
0^
0,
0)
#831
1U
1v
16
1"&
b0000000001001110 +
1^
1,
1)
#836
b0000000001001111 %
b0000000001001111 g
0v
0U
b0000000001001111 V
b0000000001001111 o
06
0"&
0^
0,
0)
#841
1U
1v
16
1"&
b0000000001001111 +
1^
1,
1)
#846
b0000000001010000 %
b0000000001010000 g
0v
0U
b0000000001010000 V
b0000000001010000 o
06
0"&
0^
0,
0)
#851
1U
1v
16
1"&
b0000000001010000 +
1^
1,
1)
#856
b0000000001010001 %
b0000000001010001 g
0v
0U
b0000000001010001 V
b0000000001010001 o
06
0"&
0^
0,
0)
#861
1U
1v
16
1"&
b0000000001010001 +
1^
1,
1)
#866
b0000000001010010 %
b0000000001010010 g
0v
0U
b0000000001010010 V
b0000000001010010 o
06
0"&
0^
0,
0)
#871
1U
1v
16
1"&
b0000000001010010 +
1^
1,
1)
#876
b0000000001010011 %
b0000000001010011 g
0v
0U
b0000000001010011 V
b0000000001010011 o
06
0"&
0^
0,
0)
#881
1U
1v
16
1"&
b0000000001010011 +
1^
1,
1)
#886
b0000000001010100 %
b0000000001010100 g
0v
0U
b0000000001010100 V
b0000000001010100 o
06
0"&
0^
0,
0)
#891
1U
1v
16
1"&
b0000000001010100 +
1^
1,
1)
#896
b0000000001010101 %
b0000000001010101 g
0v
0U
b0000000001010101 V
b0000000001010101 o
06
0"&
0^
0,
0)
#901
1U
1v
16
1"&
b0000000001010101 +
1^
1,
1)
#906
b0000000001010110 %
b0000000001010110 g
0v
0U
b0000000001010110 V
b0000000001010110 o
06
0"&
0^
0,
0)
#911
1U
1v
16
1"&
b0000000001010110 +
1^
1,
1)
#916
b0000000001010111 %
b0000000001010111 g
0v
0U
b0000000001010111 V
b0000000001010111 o
06
0"&
0^
0,
0)
#921
1U
1v
16
1"&
b0000000001010111 +
1^
1,
1)
#926
b0000000001011000 %
b0000000001011000 g
0v
0U
b0000000001011000 V
b0000000001011000 o
06
0"&
0^
0,
0)
#931
1U
1v
16
1"&
b0000000001011000 +
1^
1,
1)
#936
b0000000001011001 %
b0000000001011001 g
0v
0U
b0000000001011001 V
b0000000001011001 o
06
0"&
0^
0,
0)
#941
1U
1v
16
1"&
b0000000001011001 +
1^
1,
1)
#946
b0000000001011010 %
b0000000001011010 g
0v
0U
b0000000001011010 V
b0000000001011010 o
06
0"&
0^
0,
0)
#951
1U
1v
16
1"&
b0000000001011010 +
1^
1,
1)
#956
b0000000001011011 %
b0000000001011011 g
0v
0U
b0000000001011011 V
b0000000001011011 o
06
0"&
0^
0,
0)
#961
1U
1v
16
1"&
b0000000001011011 +
1^
1,
1)
#966
b0000000001011100 %
b0000000001011100 g
0v
0U
b0000000001011100 V
b0000000001011100 o
06
0"&
0^
0,
0)
#971
1U
1v
16
1"&
b0000000001011100 +
1^
1,
1)
#976
b0000000001011101 %
b0000000001011101 g
0v
0U
b0000000001011101 V
b0000000001011101 o
06
0"&
0^
0,
0)
#981
1U
1v
16
1"&
b0000000001011101 +
1^
1,
1)
#986
b0000000001011110 %
b0000000001011110 g
0v
0U
b0000000001011110 V
b0000000001011110 o
06
0"&
0^
0,
0)
#991
1U
1v
16
1"&
b0000000001011110 +
1^
1,
1)
#996
b0000000001011111 %
b0000000001011111 g
0v
b00000000000000000000000011111111 &
b0000000001011111 o
06
b00000000000000000000000011111111 E
0"&
0)
b00000000000000000000000011111111 M
0U
b00000000000000000000000011111111 G
b0000000001011111 V
b00000000000000000000000011111111 #
0^
b00000000000000000000000011111111 |
0,
#1001
b00000000000000000000000011111111 T
1U
1v
b00000000000000000000000011111111 "!
16
1"&
b0000000001011111 +
1^
1,
1)
#1006
b0000000001100000 %
b0000000001100000 g
0v
b00000000000000000000000000000000 &
b0000000001100000 o
06
b00000000000000000000000000000000 E
0"&
0)
b00000000000000000000000000000000 M
0U
b00000000000000000000000000000000 "!
b00000000000000000000000000000000 G
b0000000001100000 V
b00000000000000000000000000000000 #
0^
b00000000000000000000000000000000 |
0,
#1011
b00000000000000000000000000000000 T
1U
1v
16
1"&
b0000000001100000 +
1^
1,
1)
#1016
b0000000001100001 %
b0000000001100001 g
0v
0U
b0000000001100001 V
b0000000001100001 o
06
0"&
0^
0,
0)
#1021
1U
1v
16
1"&
b0000000001100001 +
1^
1,
1)
#1026
b0000000001100010 %
b0000000001100010 g
0v
0U
b0000000001100010 V
b0000000001100010 o
06
0"&
0^
0,
0)
#1031
1U
1v
16
1"&
b0000000001100010 +
1^
1,
1)
#1036
b0000000001100011 %
b0000000001100011 g
0v
0U
b0000000001100011 V
b0000000001100011 o
06
0"&
0^
0,
0)
#1041
1U
1v
16
1"&
b0000000001100011 +
1^
1,
1)
#1046
b0000000001100100 %
b0000000001100100 g
0v
0U
b0000000001100100 V
b0000000001100100 o
06
0"&
0^
0,
0)
#1051
1U
1v
16
1"&
b0000000001100100 +
1^
1,
1)
#1056
b0000000001100101 %
b0000000001100101 g
0v
0U
b0000000001100101 V
b0000000001100101 o
06
0"&
0^
0,
0)
#1061
1U
1v
16
1"&
b0000000001100101 +
1^
1,
1)
#1066
b0000000001100110 %
b0000000001100110 g
0v
0U
b0000000001100110 V
b0000000001100110 o
06
0"&
0^
0,
0)
#1071
1U
1v
16
1"&
b0000000001100110 +
1^
1,
1)
#1076
b0000000001100111 %
b0000000001100111 g
0v
0U
b0000000001100111 V
b0000000001100111 o
06
0"&
0^
0,
0)
#1081
1U
1v
16
1"&
b0000000001100111 +
1^
1,
1)
#1086
b0000000001101000 %
b0000000001101000 g
0v
b00000000000000000000000011111111 &
b0000000001101000 o
06
b00000000000000000000000011111111 E
0"&
0)
b00000000000000000000000011111111 M
0U
b00000000000000000000000011111111 G
b0000000001101000 V
b00000000000000000000000011111111 #
0^
b00000000000000000000000011111111 |
0,
#1091
b00000000000000000000000011111111 T
1U
1v
b00000000000000000000000011111111 "!
16
1"&
b0000000001101000 +
1^
1,
1)
#1096
b0000000001101001 %
b0000000001101001 g
0v
b00000000000000000000000000000000 &
b0000000001101001 o
06
b00000000000000000000000000000000 E
0"&
0)
b00000000000000000000000000000000 M
0U
b00000000000000000000000000000000 "!
b00000000000000000000000000000000 G
b0000000001101001 V
b00000000000000000000000000000000 #
0^
b00000000000000000000000000000000 |
0,
#1101
b00000000000000000000000000000000 T
1U
1v
16
1"&
b0000000001101001 +
1^
1,
1)
#1106
b0000000001101010 %
b0000000001101010 g
0v
0U
b0000000001101010 V
b0000000001101010 o
06
0"&
0^
0,
0)
#1111
1U
1v
16
1"&
b0000000001101010 +
1^
1,
1)
#1116
b0000000001101011 %
b0000000001101011 g
0v
0U
b0000000001101011 V
b0000000001101011 o
06
0"&
0^
0,
0)
#1121
1U
1v
16
1"&
b0000000001101011 +
1^
1,
1)
#1126
b0000000001101100 %
b0000000001101100 g
0v
0U
b0000000001101100 V
b0000000001101100 o
06
0"&
0^
0,
0)
#1131
1U
1v
16
1"&
b0000000001101100 +
1^
1,
1)
#1136
b0000000001101101 %
b0000000001101101 g
0v
0U
b0000000001101101 V
b0000000001101101 o
06
0"&
0^
0,
0)
#1141
1U
1v
16
1"&
b0000000001101101 +
1^
1,
1)
#1146
b0000000001101110 %
b0000000001101110 g
0v
0U
b0000000001101110 V
b0000000001101110 o
06
0"&
0^
0,
0)
#1151
1U
1v
16
1"&
b0000000001101110 +
1^
1,
1)
#1156
b0000000001101111 %
b0000000001101111 g
0v
0U
b0000000001101111 V
b0000000001101111 o
06
0"&
0^
0,
0)
#1161
1U
1v
16
1"&
b0000000001101111 +
1^
1,
1)
#1166
b0000000001110000 %
b0000000001110000 g
0v
0U
b0000000001110000 V
b0000000001110000 o
06
0"&
0^
0,
0)
#1171
1U
1v
16
1"&
b0000000001110000 +
1^
1,
1)
#1176
b0000000001110001 %
b0000000001110001 g
0v
0U
b0000000001110001 V
b0000000001110001 o
06
0"&
0^
0,
0)
#1181
1U
1v
16
1"&
b0000000001110001 +
1^
1,
1)
